Project title
…
Not all 195 countries are in our dataset, which limits the scope of our dataset a bit.

The years within the dataset only range from 1992 to 2018, which could be a limitation because the range is 26 years, which may or may not be a long enough time period to see substantive changes in GDP or CO2 emissions. Additionally, this dataset does not contain data for more recent years, which could be another limitation if we want to see the most up-to-date data on GDP/emissions for different countries.

Exploratory data analysis

Perform an (initial) exploratory data analysis.

#average GDP of countries
pollution |>
  group_by(Country.Name) |>
  summarize(mean = mean(Country.GDP))

# A tibble: 92 × 2
   Country.Name          mean
   <chr>                <dbl>
 1 Afghanistan   33132487623.
 2 Albania       21086224119.
 3 Algeria      337419554968.
 4 Angola        80080787153.
 5 Argentina    644263431130.
 6 Armenia       21997234897.
 7 Australia    846270603567.
 8 Austria      306055723842.
 9 Azerbaijan    87440896379.
10 Bangladesh   324340371911.
# … with 82 more rows

#average total CO2 emissions of countries 
pollution |>
  group_by(Country.Name) |>
  summarize(mean = mean(Emissions.Production.CO2.Total))

# A tibble: 92 × 2
   Country.Name   mean
   <chr>         <dbl>
 1 Afghanistan    3.96
 2 Albania        3.68
 3 Algeria      110.  
 4 Angola        19.1 
 5 Argentina    160.  
 6 Armenia        4.30
 7 Australia    371.  
 8 Austria       68.8 
 9 Azerbaijan    34.9 
10 Bangladesh    42.6 
# … with 82 more rows
…
