Project title
…
# add code here
animal_center_outcomes <- read_csv("data/Austin_Animal_Center_Outcomes .csv", skip = 1)

Rows: 149051 Columns: 12
── Column specification ────────────────────────────────────────────────────────
Delimiter: ","
chr (12): Animal ID, Name, DateTime, MonthYear, Date of Birth, Outcome Type,...

ℹ Use `spec()` to retrieve the full column specification for this data.
ℹ Specify the column types or set `show_col_types = FALSE` to quiet this message.

animal_center_outcomes

# A tibble: 149,051 × 12
   Anima…¹ Name  DateT…² Month…³ Date …⁴ Outco…⁵ Outco…⁶ Anima…⁷ Sex u…⁸ Age u…⁹
   <chr>   <chr> <chr>   <chr>   <chr>   <chr>   <chr>   <chr>   <chr>   <chr>  
 1 A794011 Chunk 05/08/… May 20… 05/02/… Rto-Ad… <NA>    Cat     Neuter… 2 years
 2 A776359 Gizmo 07/18/… Jul 20… 07/12/… Adopti… <NA>    Dog     Neuter… 1 year 
 3 A821648 <NA>  08/16/… Aug 20… 08/16/… Euthan… <NA>    Other   Unknown 1 year 
 4 A720371 Moose 02/13/… Feb 20… 10/08/… Adopti… <NA>    Dog     Neuter… 4 mont…
 5 A674754 <NA>  03/18/… Mar 20… 03/12/… Transf… Partner Cat     Intact… 6 days 
 6 A659412 Prin… 10/05/… Oct 20… 03/24/… Adopti… <NA>    Dog     Spayed… 7 years
 7 A814515 Quen… 05/06/… May 20… 03/01/… Adopti… Foster  Dog     Neuter… 2 years
 8 A868405 *Leo  03/04/… Mar 20… 11/02/… Adopti… <NA>    Dog     Neuter… 2 years
 9 A689724 *Don… 10/18/… Oct 20… 08/01/… Adopti… <NA>    Cat     Neuter… 2 mont…
10 A680969 *Zeus 08/05/… Aug 20… 06/03/… Adopti… <NA>    Cat     Neuter… 2 mont…
# … with 149,041 more rows, 2 more variables: Breed <chr>, Color <chr>, and
#   abbreviated variable names ¹​`Animal ID`, ²​DateTime, ³​MonthYear,
#   ⁴​`Date of Birth`, ⁵​`Outcome Type`, ⁶​`Outcome Subtype`, ⁷​`Animal Type`,
#   ⁸​`Sex upon Outcome`, ⁹​`Age upon Outcome`
…
