It’s Getting Hot in Here
…
The current dataset we will use depends on the datasets it was built off of and how they were processed, so if certain countries or emission data were left out of those datasets, they will also be left out of our dataset.

Preprocessing/cleaning/labeling

The various datasets that were the foundation for the original dataset underwent processing steps (the codes of which can be found at this website, https://github.com/owid/co2-data), the names of countries and regions were standardized, the carbon emissions were recalculated to CO2 (e.g. from tonnes of carbon to tonnes of CO2 using a conversion factor of 3.664), and per capita figures were calculated from the dataset’s “Population” metric, which is included in the complete dataset and the population figures were sourced from Gapminder and the UN World Population Prospects (UNWPP). The current dataset we will use is a subset of the original dataset, with all the tonnes units converted into kilotons and the variable names altered.

The link for the software and code that was used to preprocess/clean/label the data: https://github.com/owid/co2-data

Data analysis

# A tibble: 92 × 2
   Country.Name          mean
   <chr>                <dbl>
 1 Afghanistan   33132487623.
 2 Albania       21086224119.
 3 Algeria      337419554968.
 4 Angola        80080787153.
 5 Argentina    644263431130.
 6 Armenia       21997234897.
 7 Australia    846270603567.
 8 Austria      306055723842.
 9 Azerbaijan    87440896379.
10 Bangladesh   324340371911.
# ℹ 82 more rows

The average GDP for all countries (between 1992 and 2018) in the dataset were calculated and can be found in the displayed tibble.

# A tibble: 92 × 2
   Country.Name    mean
   <chr>          <dbl>
 1 Afghanistan   0.308 
 2 Albania       0.0591
 3 Algeria      54.3   
 4 Angola        1.21  
 5 Argentina    76.1   
 6 Armenia       3.19  
 7 Australia    56.1   
 8 Austria      16.3   
 9 Azerbaijan   17.6   
10 Bangladesh   28.6   
# ℹ 82 more rows
…
